{  
	    "lotto":{   
	    "lottoId":5,   
	    "winning-numbers":[2,45,34,23,7,5,3],   
	    "winners":[{      
	    	"winnerId":23,      
	    	"numbers":[2,45,34,23,5,3]      
	    	},{      
	    	"winnerId":54,      
	    	"numbers":[2,45,23,7,5,3]      
	    	}]   
	    }  
	    }
